{
    "page": 1,
    "total_results": 19834,
    "total_pages": 992,
    "results": [
        {
            "vote_count": 1900,
            "id": 348350,
            "video": false,
            "vote_average": 6.7,
            "title": "Solo: A Star Wars Story",
            "popularity": 266.76,
            "poster_path": "/3IGbjc5ZC5yxim5W0sFING2kdcz.jpg",
            "original_language": "en",
            "original_title": "Solo: A Star Wars Story",
            "genre_ids": [
                28,
                12,
                878
            ],
            "backdrop_path": "/96B1qMN9RxrAFu6uikwFhQ6N6J9.jpg",
            "adult": false,
            "overview": "Through a series of daring escapades deep within a dark and dangerous criminal underworld, Han Solo meets his mighty future copilot Chewbacca and encounters the notorious gambler Lando Calrissian.",
            "release_date": "2018-05-15"
        },
        {
            "vote_count": 786,
            "id": 439079,
            "video": false,
            "vote_average": 5.9,
            "title": "The Nun",
            "popularity": 211.634,
            "poster_path": "/sFC1ElvoKGdHJIWRpNB3xWJ9lJA.jpg",
            "original_language": "en",
            "original_title": "The Nun",
            "genre_ids": [
                27,
                9648,
                53
            ],
            "backdrop_path": "/fgsHxz21B27hOOqQBiw9L6yWcM7.jpg",
            "adult": false,
            "overview": "When a young nun at a cloistered abbey in Romania takes her own life, a priest with a haunted past and a novitiate on the threshold of her final vows are sent by the Vatican to investigate. Together they uncover the order’s unholy secret. Risking not only their lives but their faith and their very souls, they confront a malevolent force in the form of the same demonic nun that first terrorized audiences in “The Conjuring 2,” as the abbey becomes a horrific battleground between the living and the damned.",
            "release_date": "2018-09-05"
        },
        {
            "vote_count": 3,
            "id": 465518,
            "video": false,
            "vote_average": 8,
            "title": "Demon Covered in Scars",
            "popularity": 191.696,
            "poster_path": "/w2gQDZnte8q4jscMpsiY755nv5T.jpg",
            "original_language": "ko",
            "original_title": "傷だらけの悪魔",
            "genre_ids": [
                18
            ],
            "backdrop_path": "/uCpgiQ1c4kJpnrBkc25yvQzI4eY.jpg",
            "adult": false,
            "overview": "Mai (Rika Adachi) is a high school student. She attends a new school and there she meets her classmate Shino (Manami Enosawa). Shino was bullied by Mai's friends back in their middle school days. Table have now turned.",
            "release_date": "2017-02-04"
        },
        {
            "vote_count": 8367,
            "id": 299536,
            "video": false,
            "vote_average": 8.3,
            "title": "Avengers: Infinity War",
            "popularity": 188.767,
            "poster_path": "/7WsyChQLEftFiDOVTGkv3hFpyyt.jpg",
            "original_language": "en",
            "original_title": "Avengers: Infinity War",
            "genre_ids": [
                12,
                878,
                28
            ],
            "backdrop_path": "/lmZFxXgJE3vgrciwuDib0N8CfQo.jpg",
            "adult": false,
            "overview": "As the Avengers and their allies have continued to protect the world from threats too large for any one hero to handle, a new danger has emerged from the cosmic shadows: Thanos. A despot of intergalactic infamy, his goal is to collect all six Infinity Stones, artifacts of unimaginable power, and use them to inflict his twisted will on all of reality. Everything the Avengers have fought for has led up to this moment - the fate of Earth and existence itself has never been more uncertain.",
            "release_date": "2018-04-25"
        },
        {
            "vote_count": 3616,
            "id": 351286,
            "video": false,
            "vote_average": 6.5,
            "title": "Jurassic World: Fallen Kingdom",
            "popularity": 174.122,
            "poster_path": "/c9XxwwhPHdaImA2f1WEfEsbhaFB.jpg",
            "original_language": "en",
            "original_title": "Jurassic World: Fallen Kingdom",
            "genre_ids": [
                28,
                12,
                878
            ],
            "backdrop_path": "/3s9O5af2xWKWR5JzP2iJZpZeQQg.jpg",
            "adult": false,
            "overview": "Three years after the demise of Jurassic World, a volcanic eruption threatens the remaining dinosaurs on the isla Nublar, so Claire Dearing, the former park manager, recruits Owen Grady to help prevent the extinction of the dinosaurs once again.",
            "release_date": "2018-06-06"
        },
        {
            "vote_count": 637,
            "id": 400155,
            "video": false,
            "vote_average": 6.9,
            "title": "Hotel Transylvania 3: Summer Vacation",
            "popularity": 151.05,
            "poster_path": "/gjAFM4xhA5vyLxxKMz38ujlUfDL.jpg",
            "original_language": "en",
            "original_title": "Hotel Transylvania 3: Summer Vacation",
            "genre_ids": [
                10751,
                14,
                35,
                16
            ],
            "backdrop_path": "/m03jul0YdVEOFXEQVUv6pOVQYGL.jpg",
            "adult": false,
            "overview": "Dracula, Mavis, Johnny and the rest of the Drac Pack take a vacation on a luxury Monster Cruise Ship, where Dracula falls in love with the ship’s captain, Ericka, who’s secretly a descendant of Abraham Van Helsing, the notorious monster slayer.",
            "release_date": "2018-06-28"
        },
        {
            "vote_count": 364,
            "id": 346910,
            "video": false,
            "vote_average": 5.4,
            "title": "The Predator",
            "popularity": 142.828,
            "poster_path": "/wMq9kQXTeQCHUZOG4fAe5cAxyUA.jpg",
            "original_language": "en",
            "original_title": "The Predator",
            "genre_ids": [
                27,
                878,
                28,
                35
            ],
            "backdrop_path": "/f4E0ocYeToEuXvczZv6QArrMDJ.jpg",
            "adult": false,
            "overview": "From the outer reaches of space to the small-town streets of suburbia, the hunt comes home. Now, the universe’s most lethal hunters are stronger, smarter and deadlier than ever before, having genetically upgraded themselves with DNA from other species. When a young boy accidentally triggers their return to Earth, only a ragtag crew of ex-soldiers and a disgruntled science teacher can prevent the end of the human race.",
            "release_date": "2018-09-13"
        },
        {
            "vote_count": 809,
            "id": 447200,
            "video": false,
            "vote_average": 6,
            "title": "Skyscraper",
            "popularity": 139.668,
            "poster_path": "/5LYSsOPzuP13201qSzMjNxi8FxN.jpg",
            "original_language": "en",
            "original_title": "Skyscraper",
            "genre_ids": [
                28,
                53,
                18
            ],
            "backdrop_path": "/oMKFQmoVgB69fyXfSMu0lGlHJP2.jpg",
            "adult": false,
            "overview": "Framed and on the run, a former FBI agent must save his family from a blazing fire in the world's tallest building.",
            "release_date": "2018-07-11"
        },
        {
            "vote_count": 30,
            "id": 135870,
            "video": false,
            "vote_average": 3.9,
            "title": "Rebel",
            "popularity": 134.572,
            "poster_path": "/dNTzorrVmcJ25fUGzs9FfkoXb0P.jpg",
            "original_language": "te",
            "original_title": "రెబెల్",
            "genre_ids": [
                28
            ],
            "backdrop_path": "/yCGEkEqy7uOo7NwlbgOzGrI8i43.jpg",
            "adult": false,
            "overview": "Rebel is a romantic action revenge drama, which revolves around the story of a happy-go-lucky guy. The hero (Prabhas) is the son of a good-natured mafia don (Krishnam Raju). The hero becomes Rebel after his father is killed. How he takes revenge upon the people, who killed his father, will form the second half of the movie. Apart from directing, Raghava Lawrence also handles the choreography, screenplay and music direction for the film. The film is being produced by J. Bhaghawan and J. Pulla Rao under Sri Balaji Cine Media banner.",
            "release_date": "2012-09-28"
        },
        {
            "vote_count": 33,
            "id": 507569,
            "video": false,
            "vote_average": 5.9,
            "title": "The Seven Deadly Sins: Prisoners of the Sky",
            "popularity": 125.304,
            "poster_path": "/r6pPUVUKU5eIpYj4oEzidk5ZibB.jpg",
            "original_language": "ja",
            "original_title": "The Seven Deadly Sins: Prisioneros del Cielo",
            "genre_ids": [
                28,
                12,
                14,
                16
            ],
            "backdrop_path": "/uKwOX7MtKlAaGeCQe6c4jc1vZpj.jpg",
            "adult": false,
            "overview": "Traveling in search of the rare ingredient, “sky fish”  Meliodas and Hawk arrive at a palace that floats above the clouds. The people there are busy preparing a ceremony, meant to protect their home from a ferocious beast that awakens once every 3,000 years. But before the ritual is complete, the Six Knights of Black—a Demon Clan army—removes the seal on the beast, threatening the lives of everyone in the Sky Palace.",
            "release_date": "2018-08-18"
        },
        {
            "vote_count": 5228,
            "id": 383498,
            "video": false,
            "vote_average": 7.5,
            "title": "Deadpool 2",
            "popularity": 120.262,
            "poster_path": "/to0spRl1CMDvyUbOnbb4fTk3VAd.jpg",
            "original_language": "en",
            "original_title": "Deadpool 2",
            "genre_ids": [
                28,
                35,
                878
            ],
            "backdrop_path": "/3P52oz9HPQWxcwHOwxtyrVV1LKi.jpg",
            "adult": false,
            "overview": "Wisecracking mercenary Deadpool battles the evil and powerful Cable and other bad guys to save a boy's life.",
            "release_date": "2018-05-15"
        },
        {
            "vote_count": 15,
            "id": 335983,
            "video": false,
            "vote_average": 6.1,
            "title": "Venom",
            "popularity": 115.414,
            "poster_path": "/2uNW4WbgBXL25BAbXGLnLqX71Sw.jpg",
            "original_language": "en",
            "original_title": "Venom",
            "genre_ids": [
                27,
                878,
                28,
                53
            ],
            "backdrop_path": "/VuukZLgaCrho2Ar8Scl9HtV3yD.jpg",
            "adult": false,
            "overview": "When Eddie Brock acquires the powers of a symbiote, he will have to release his alter-ego “Venom” to save his life.",
            "release_date": "2018-10-03"
        },
        {
            "vote_count": 860,
            "id": 442249,
            "video": false,
            "vote_average": 5.9,
            "title": "The First Purge",
            "popularity": 105.874,
            "poster_path": "/eN1954A4fnAjQlDMJLh0dsTczFK.jpg",
            "original_language": "en",
            "original_title": "The First Purge",
            "genre_ids": [
                28,
                878,
                53,
                27
            ],
            "backdrop_path": "/r4clWIxKeWoqrHspQP0XunuUmB7.jpg",
            "adult": false,
            "overview": "To push the crime rate below one percent for the rest of the year, the New Founding Fathers of America test a sociological theory that vents aggression for one night in one isolated community. But when the violence of oppressors meets the rage of the others, the contagion will explode from the trial-city borders and spread across the nation.",
            "release_date": "2018-07-04"
        },
        {
            "vote_count": 8,
            "id": 505039,
            "video": false,
            "vote_average": 5.1,
            "title": "Illicit Desires",
            "popularity": 98.02,
            "poster_path": "/mndCeIXbFH4pTtjaVUzf3eEOPZp.jpg",
            "original_language": "en",
            "original_title": "Illicit Desires",
            "genre_ids": [
                53
            ],
            "backdrop_path": null,
            "adult": false,
            "overview": "\"Illicit Desires\" peeks behind the curtain into the world of an adult toy manufacturer (played by Valerie Baber). And what a world it is! Greed and betrayal run wild in the corporate world of sensual oddities as a new, young, office intern (the legendary August Ames) sets her sights on moving right to the top. What she's willing to do to get where she wants to be will absolutely kill you. It also helps if you're a psychopathic murderess.",
            "release_date": "2017-04-01"
        },
        {
            "vote_count": 8291,
            "id": 284054,
            "video": false,
            "vote_average": 7.4,
            "title": "Black Panther",
            "popularity": 93.503,
            "poster_path": "/uxzzxijgPIY7slzFvMotPv8wjKA.jpg",
            "original_language": "en",
            "original_title": "Black Panther",
            "genre_ids": [
                28,
                12,
                14,
                878
            ],
            "backdrop_path": "/b6ZJZHUdMEFECvGiDpJjlfUWela.jpg",
            "adult": false,
            "overview": "King T'Challa returns home from America to the reclusive, technologically advanced African nation of Wakanda to serve as his country's new leader. However, T'Challa soon finds that he is challenged for the throne by factions within his own country as well as without. Using powers reserved to Wakandan kings, T'Challa assumes the Black Panther mantel to join with girlfriend Nakia, the queen-mother, his princess-kid sister, members of the Dora Milaje (the Wakandan 'special forces') and an American secret agent, to prevent Wakanda from being dragged into a world war.",
            "release_date": "2018-02-13"
        },
        {
            "vote_count": 1039,
            "id": 345940,
            "video": false,
            "vote_average": 6,
            "title": "The Meg",
            "popularity": 90.111,
            "poster_path": "/eyWICPcxOuTcDDDbTMOZawoOn8d.jpg",
            "original_language": "en",
            "original_title": "The Meg",
            "genre_ids": [
                28,
                878,
                53
            ],
            "backdrop_path": "/rH79sB6Nkx4cMW3JzsUy7wK0rhX.jpg",
            "adult": false,
            "overview": "A deep sea submersible pilot revisits his past fears in the Mariana Trench, and accidentally unleashes the seventy foot ancestor of the Great White Shark believed to be extinct.",
            "release_date": "2018-08-09"
        },
        {
            "vote_count": 413,
            "id": 400535,
            "video": false,
            "vote_average": 6.7,
            "title": "Sicario: Day of the Soldado",
            "popularity": 87.626,
            "poster_path": "/msqWSQkU403cQKjQHnWLnugv7EY.jpg",
            "original_language": "en",
            "original_title": "Sicario: Day of the Soldado",
            "genre_ids": [
                28,
                80,
                18,
                53
            ],
            "backdrop_path": "/tnwMCH4yLBY4qpe6Nr4n66u4U3f.jpg",
            "adult": false,
            "overview": "Agent Matt Graver teams up with operative Alejandro Gillick to prevent Mexican drug cartels from smuggling terrorists across the United States border.",
            "release_date": "2018-06-27"
        },
        {
            "vote_count": 1701,
            "id": 353081,
            "video": false,
            "vote_average": 7.3,
            "title": "Mission: Impossible - Fallout",
            "popularity": 77.868,
            "poster_path": "/AkJQpZp9WoNdj7pLYSj1L0RcMMN.jpg",
            "original_language": "en",
            "original_title": "Mission: Impossible - Fallout",
            "genre_ids": [
                12,
                28,
                53
            ],
            "backdrop_path": "/a9fRqsl6P27qxbDSb4pBXNv9Fwl.jpg",
            "adult": false,
            "overview": "When an IMF mission ends badly, the world is faced with dire consequences. As Ethan Hunt takes it upon himself to fulfill his original briefing, the CIA begin to question his loyalty and his motives. The IMF team find themselves in a race against time, hunted by assassins while trying to prevent a global catastrophe.",
            "release_date": "2018-07-25"
        },
        {
            "vote_count": 1,
            "id": 516710,
            "video": false,
            "vote_average": 9,
            "title": "Assalamualaikum Calon Imam",
            "popularity": 69.192,
            "poster_path": "/mKZp2wJzNKMYfDo9e21Dpw0MTmi.jpg",
            "original_language": "id",
            "original_title": "Assalamualaikum Calon Imam",
            "genre_ids": [
                18
            ],
            "backdrop_path": null,
            "adult": false,
            "overview": "Add the plot.",
            "release_date": "2018-06-07"
        },
        {
            "vote_count": 1827,
            "id": 402900,
            "video": false,
            "vote_average": 6.9,
            "title": "Ocean's Eight",
            "popularity": 63.125,
            "poster_path": "/MvYpKlpFukTivnlBhizGbkAe3v.jpg",
            "original_language": "en",
            "original_title": "Ocean's Eight",
            "genre_ids": [
                80,
                35,
                28,
                53
            ],
            "backdrop_path": "/scQf03Fm3jeyv4FH04qvi4fp4wh.jpg",
            "adult": false,
            "overview": "Debbie Ocean, a criminal mastermind, gathers a crew of female thieves to pull off the heist of the century at New York’s annual Met Gala.",
            "release_date": "2018-06-07"
        }
    ]
}